Uso de airbags en accidentes de transito
…
Puede observarse que las unicas variables que tienen valores faltantes son yearVeh e injSeverity. Se procede a investigar un poco mas:

colSums(is.na(df))

      dvcat        dead      airbag    seatbelt     frontal         sex 
          0           0           0           0           0           0 
   ageOFocc     yearacc     yearVeh       abcat     occRole injSeverity 
          0           0           1           0           0         153 
     caseid 
          0 

df[rowSums(is.na(df)) > 0,]

# A tibble: 154 x 13
   dvcat dead  airbag seatbelt frontal sex   ageOFocc yearacc yearVeh abcat
   <chr> <chr> <chr>  <chr>      <int> <chr>    <int>   <int>   <int> <chr>
 1 10-24 alive none   belted         0 f           36    1997    1984 unav~
 2 25-39 alive none   none           1 m           22    1997    1993 unav~
 3 10-24 alive airbag belted         1 m           27    1997      NA depl~
 4 10-24 alive none   belted         0 f           80    1997    1981 unav~
 5 10-24 alive none   belted         0 f           27    1997    1984 unav~
 6 10-24 alive airbag belted         1 m           23    1997    1995 depl~
 7 10-24 alive none   none           1 m           25    1997    1989 unav~
 8 25-39 alive none   belted         1 m           40    1997    1993 unav~
 9 25-39 alive none   belted         1 m           32    1997    1988 unav~
10 25-39 alive airbag none           1 f           27    1997    1993 depl~
# ... with 144 more rows, and 3 more variables: occRole <chr>,
#   injSeverity <int>, caseid <chr>
…
levels(df$abcat) <- c("deployed", "nodeploy/unavail", "nodeploy/unavail")

1.5.2 caseid

En primer lugar, es necesario analizar el valor de caseid. Esta variable representa la identificacin de cada vehiculo en un ao dado. Ha sido creada combinando la unidad de muestreo de poblaciones, el numero de caso y el numero de vehiculo. Es decir, dentro de cada ao de accidente, sirve para identificar de forma nica el vehculo.

n_distinct(df$caseid)

[1] 9400

df %>% group_by(caseid) %>%
  dplyr::summarise(casos_por_id = n())

# A tibble: 9,400 x 2
   caseid   casos_por_id
   <chr>           <int>
 1 11:1:1              3
 2 11:1:2              4
 3 11:10:1             3
 4 11:10:2             2
 5 11:100:2            2
 6 11:101:1            1
 7 11:102:1            4
 8 11:102:2            1
 9 11:103:1            6
10 11:103:2            4
# ... with 9,390 more rows
…
A continuacion se controla que no haya ids duplicados, puesto que cada observacion debe corresponder a un individuo:

# se calcula el numero de ids distintos:
n_distinct(df$case_id_persona)

[1] 25611

#se filtra cuales son los ids duplicados
df %>% group_by(case_id_persona) %>%
 dplyr::summarise(casos_por_id = n()) %>%
  filter(casos_por_id != 1)

# A tibble: 451 x 2
   case_id_persona    casos_por_id
   <chr>                     <int>
 1 1997:1984:2:151:0             2
 2 1997:1984:43:230:0            2
 3 1997:1984:45:20:0             2
 4 1997:1984:45:20:1             2
 5 1997:1984:8:19:0              2
 6 1997:1985:75:127:0            2
 7 1997:1986:12:76:0             2
 8 1997:1986:48:59:0             2
 9 1997:1987:11:105:0            2
10 1997:1987:12:102:0            2
# ... with 441 more rows
…
